{
    "cordova-plugin-whitelist": {
        "source": {
            "type": "registry",
            "id": "cordova-plugin-whitelist@~1.2.0"
        },
        "is_top_level": true,
        "variables": {}
    },
    "cordova-plugin-console": {
        "source": {
            "type": "registry",
            "id": "cordova-plugin-console@~1.0.1"
        },
        "is_top_level": true,
        "variables": {}
    },
    "cordova-plugin-statusbar": {
        "source": {
            "type": "registry",
            "id": "cordova-plugin-statusbar@~1.0.1"
        },
        "is_top_level": true,
        "variables": {}
    },
    "phonegap-plugin-push": {
        "source": {
            "type": "registry",
            "id": "phonegap-plugin-push@~1.8.0"
        },
        "is_top_level": true,
        "variables": {
            "SENDER_ID": "XXXXXXX"
        }
    },
    "cordova-plugin-device": {
        "source": {
            "type": "registry",
            "id": "cordova-plugin-device"
        },
        "is_top_level": true,
        "variables": {}
    }
}